<?xml version="1.0" encoding="UTF-8"?>
<svg width="28px" height="28px" viewBox="0 0 28 28" version="1.1" xmlns="http://www.w3.org/2000/svg" xmlns:xlink="http://www.w3.org/1999/xlink">
    <!-- Generator: Sketch 55 (78076) - https://sketchapp.com -->
    <title>PendingPayment_icon</title>
    <desc>Created with Sketch.</desc>
    <g id="PendingPayment_icon" stroke="none" stroke-width="1" fill="none" fill-rule="evenodd">
        <g id="待付款" transform="translate(4.000000, 5.000000)" fill="#FFFFFF" stroke="#979797" stroke-width="2">
            <rect id="矩形" x="1" y="1" width="18" height="16" rx="3"></rect>
            <rect id="矩形-copy-2" x="11" y="7" width="10" height="4" rx="2"></rect>
        </g>
    </g>
</svg>