<?xml version="1.0" encoding="UTF-8"?>
<svg width="48px" height="48px" viewBox="0 0 48 48" version="1.1" xmlns="http://www.w3.org/2000/svg" xmlns:xlink="http://www.w3.org/1999/xlink">
    <!-- Generator: Sketch 53.2 (72643) - https://sketchapp.com -->
    <title>Collection_icon</title>
    <desc>Created with Sketch.</desc>
    <g id="Collection_icon" stroke="none" stroke-width="1" fill="none" fill-rule="evenodd" stroke-linecap="round" stroke-linejoin="round">
        <polygon id="Favorite" stroke="#F9A835" stroke-width="2" points="24.4999754 14 27.744276 20.5835849 35 21.6392671 29.7499877 26.7638528 30.9889703 34 24.4999754 30.5836095 18.0105867 34 19.2500123 26.7638528 14 21.6392671 21.2552811 20.5835849"></polygon>
    </g>
</svg>