<?xml version="1.0" encoding="UTF-8"?>
<svg width="27px" height="27px" viewBox="0 0 27 27" version="1.1" xmlns="http://www.w3.org/2000/svg" xmlns:xlink="http://www.w3.org/1999/xlink">
    <!-- Generator: Sketch 53.2 (72643) - https://sketchapp.com -->
    <title>me_icon_Selected</title>
    <desc>Created with Sketch.</desc>
    <g id="me_icon_Selected" stroke="none" stroke-width="1" fill="none" fill-rule="evenodd" stroke-linecap="round" stroke-linejoin="round">
        <path d="M13.5,16 C10.1862915,16 7.5,13.0898509 7.5,9.5 C7.5,5.91014913 10.1862915,3 13.5,3 C16.8137085,3 19.5,5.91014913 19.5,9.5 C19.5,13.0898509 16.8137085,16 13.5,16 Z M13.5,16 C19.5,16 23,18.6666667 24,24 L3,24 C4,18.6666667 7.5,16 13.5,16 Z" id="Profile" stroke="#FC526F" stroke-width="2" fill="#FC526F"></path>
    </g>
</svg>