<?xml version="1.0" encoding="UTF-8"?>
<svg width="48px" height="48px" viewBox="0 0 48 48" version="1.1" xmlns="http://www.w3.org/2000/svg" xmlns:xlink="http://www.w3.org/1999/xlink">
    <!-- Generator: Sketch 53.2 (72643) - https://sketchapp.com -->
    <title>wechat_icon</title>
    <desc>Created with Sketch.</desc>
    <g id="wechat_icon" stroke="none" stroke-width="1" fill="none" fill-rule="evenodd">
        <path d="M21.1248304,26.9446154 C21.0230665,27.0123077 20.8873813,27.0461538 20.7516961,27.0461538 C20.4464043,27.0461538 20.1750339,26.8769231 20.0393487,26.6061538 L19.9715061,26.4707692 L17.6987788,21.4953846 C17.6648575,21.4276923 17.6648575,21.3938462 17.6648575,21.3261538 C17.6648575,21.0892308 17.834464,20.92 18.0719132,20.92 C18.1736771,20.92 18.2415197,20.9538462 18.3093623,20.9876923 L20.9891452,22.8830769 C21.192673,23.0184615 21.4301221,23.0861538 21.6675712,23.0861538 C21.8032564,23.0861538 21.972863,23.0523077 22.1085482,23.0184615 L34.7272727,17.4 C32.4545455,14.7261538 28.7232022,13 24.5169607,13 C17.5970149,13 12,17.6707692 12,23.3907692 C12,26.5384615 13.6960651,29.3476923 16.3080054,31.2430769 C16.5115332,31.3784615 16.6472185,31.6492308 16.6472185,31.92 C16.6472185,32.0215385 16.6132972,32.0892308 16.6132972,32.1907692 C16.4097693,32.9692308 16.0705563,34.2215385 16.036635,34.2892308 C16.0027137,34.3907692 15.9687924,34.4923077 15.9687924,34.5938462 C15.9687924,34.8307692 16.1723202,35 16.375848,35 C16.4776119,35 16.5454545,34.9661538 16.6132972,34.9323077 L19.3609227,33.3415385 C19.5644505,33.2061538 19.7679783,33.1384615 20.0393487,33.1384615 C20.1750339,33.1384615 20.2767978,33.1723077 20.412483,33.2061538 C21.7014925,33.5784615 23.0583446,33.7815385 24.4830393,33.7815385 C31.4029851,33.7815385 37,29.1107692 37,23.3907692 C37,21.6646154 36.4911805,20.0061538 35.5753053,18.5846154 L21.192673,26.8769231 L21.1248304,26.9446154 L21.1248304,26.9446154 Z" id="Icon" fill="#09BB07"></path>
    </g>
</svg>